132914 166759
748248 921006
42798 941704
697552 525741
883212 935084
182312 184819
818615 342860
292113 343263
802236 732743
803273 856183
32831 366138
226447 326244
9320 333719
12831 307107
739769 287813
547610 567724
46182 972664
11260 336922
726765 832689
397425 491264
776578 899057
751995 661618
954623 434734
733058 995003
428545 995615
147168 727969
369520 676729
358545 16185
241295 709777
272871 610650
260446 961427
936367 307225
717879 468778
279564 162487
291194 497472
270847 578261
56495 9182
1177 818142
176042 658536
552190 169758
579934 54909
437406 278315
335810 200253
300449 650130
510877 685981
30266 279727
52764 249821
618294 825721
993142 221414
755093 922072
682667 314330
70283 450249
444675 891004
971776 511839
736289 782203
318483 205724
914378 181470
808470 228358
19016 170931
178254 899260
814503 983151
124090 690338
460419 493142
760967 553963
702884 632316
504842 749535
347889 497554
428847 516334
14659 428513
601643 832572
321422 633479
263696 50330
122997 296392
268649 47253
791118 182652
390723 467751
143255 125587
586607 137624
287009 940138
487726 358878
177576 322612
899152 771194
862434 632531
759172 913929
638940 709681
736344 132862
651399 693017
484737 130606
935537 947493
781163 131033
844781 245719
840413 779886
376260 857530
283481 852687
884133 225398
622423 704270
505306 528382
372138 819987
78493 612394
299327 853822
259232 908307
141061 909370
265009 615109
539946 434243
132502 446456
506873 112500
355544 417882
11200 800200
934317 20381
414454 627876
847193 533591
897531 620755
249275 152031
938186 446094
250984 12990
921751 323534
43579 121417
517612 901092
195852 101078
247569 216164
388205 506048
590571 244170
533703 13662
324542 458469
415066 924164
497944 72066
315203 997094
84303 642548
962623 80123
143506 979016
261519 76526
693307 216011
203232 134983
928356 610379
29594 889022
626665 909783
289722 218728
783726 340500
31954 418620
821820 152394
63884 24205
50727 713148
406588 649708
705204 271897
402957 227286
5438 770945
221056 172511
132596 439853
223755 759525
508296 668147
680577 330576
897282 915447
515666 933062
545893 482870
264970 633571
139077 580530
419368 736263
749736 554914
971308 635114
434054 886094
917633 729443
309026 273979
928304 636942
600299 156255
986531 187404
871008 573694
63887 457647
454391 120044
657734 469952
803224 405604
184743 18391
801520 689786
612956 328697
883462 26881
894220 824716
854164 433398
570824 812055
174956 85807
217028 191838
440988 962335
561130 145518
896314 144990
513175 809217
103439 583430
315442 634524
351915 940329
855809 120733
177053 139754
408169 596634
424681 944114
534133 677215
124245 222226
828583 745629
253103 269458
823258 832185
492941 60325
974738 705870
658173 326778
611460 775753
101996 689823
157679 200544
880364 356503
713604 291407
426662 54129
64959 419613
790692 793267
861704 986067
490779 536606
507242 774267
438930 585702
667870 15669
768132 655725
355115 920196
507871 515690
661714 507051
587716 577476
945607 867448
956193 219077
708357 204735
67089 88206
58498 934942
554688 107049
266783 824907
689745 704707
288117 220632
242817 282773
123147 330562
