132914 166759 383
748248 921006 525
42798 941704 525
697552 525741 509
883212 935084 476
182312 184819 334
818615 342860 509
292113 343263 384
802236 732743 468
803273 856183 525
32831 366138 443
226447 326244 443
9320 333719 443
12831 307107 443
739769 287813 509
547610 567724 421
46182 972664 525
11260 336922 443
726765 832689 468
397425 491264 449
776578 899057 525
751995 661618 504
954623 434734 525
733058 995003 525
428545 995615 525
147168 727969 509
369520 676729 509
358545 16185 443
241295 709777 509
272871 610650 470
260446 961427 525
936367 307225 525
717879 468778 509
279564 162487 443
291194 497472 449
270847 578261 470
56495 9182 340
1177 818142 509
176042 658536 509
552190 169758 470
579934 54909 470
437406 278315 449
335810 200253 443
300449 650130 509
510877 685981 509
30266 279727 443
52764 249821 443
618294 825721 509
993142 221414 525
755093 922072 525
682667 314330 509
70283 450249 449
444675 891004 525
971776 511839 525
736289 782203 468
318483 205724 443
914378 181470 525
808470 228358 509
19016 170931 383
178254 899260 525
814503 983151 525
124090 690338 509
460419 493142 444
760967 553963 509
702884 632316 442
504842 749535 509
347889 497554 449
428847 516334 470
14659 428513 449
601643 832572 509
321422 633479 509
263696 50330 443
122997 296392 443
268649 47253 443
791118 182652 509
390723 467751 449
143255 125587 375
586607 137624 470
287009 940138 525
487726 358878 449
177576 322612 443
899152 771194 525
862434 632531 525
759172 913929 525
638940 709681 504
736344 132862 509
651399 693017 442
484737 130606 449
935537 947493 507
781163 131033 509
844781 245719 525
840413 779886 525
376260 857530 525
283481 852687 525
884133 225398 525
622423 704270 509
505306 528382 470
372138 819987 509
78493 612394 470
299327 853822 525
259232 908307 525
141061 909370 525
265009 615109 470
539946 434243 470
132502 446456 449
506873 112500 449
355544 417882 449
11200 800200 509
934317 20381 525
414454 627876 509
847193 533591 525
897531 620755 525
249275 152031 443
938186 446094 525
250984 12990 443
921751 323534 525
43579 121417 354
517612 901092 525
195852 101078 383
247569 216164 443
388205 506048 449
590571 244170 470
533703 13662 470
324542 458469 449
415066 924164 525
497944 72066 449
315203 997094 525
84303 642548 509
962623 80123 525
143506 979016 525
261519 76526 443
693307 216011 509
203232 134983 383
928356 610379 525
29594 889022 525
626665 909783 525
289722 218728 443
783726 340500 509
31954 418620 449
821820 152394 509
63884 24205 340
50727 713148 509
406588 649708 509
705204 271897 509
402957 227286 443
5438 770945 509
221056 172511 386
132596 439853 449
223755 759525 509
508296 668147 509
680577 330576 509
897282 915447 476
515666 933062 525
545893 482870 470
264970 633571 509
139077 580530 470
419368 736263 509
749736 554914 509
971308 635114 525
434054 886094 525
917633 729443 525
309026 273979 389
928304 636942 525
600299 156255 470
986531 187404 525
871008 573694 525
63887 457647 449
454391 120044 449
657734 469952 509
803224 405604 509
184743 18391 383
801520 689786 504
612956 328697 470
883462 26881 525
894220 824716 525
854164 433398 525
570824 812055 509
174956 85807 383
217028 191838 386
440988 962335 525
561130 145518 470
896314 144990 525
513175 809217 509
103439 583430 470
315442 634524 509
351915 940329 525
855809 120733 525
177053 139754 383
408169 596634 470
424681 944114 525
534133 677215 509
124245 222226 386
828583 745629 468
253103 269458 407
823258 832185 419
492941 60325 449
974738 705870 525
658173 326778 509
611460 775753 509
101996 689823 509
157679 200544 370
880364 356503 525
713604 291407 509
426662 54129 449
64959 419613 449
790692 793267 437
861704 986067 507
490779 536606 470
507242 774267 509
438930 585702 470
667870 15669 509
768132 655725 504
355115 920196 525
507871 515690 470
661714 507051 509
587716 577476 434
945607 867448 507
956193 219077 525
708357 204735 509
67089 88206 351
58498 934942 525
554688 107049 470
266783 824907 509
689745 704707 504
288117 220632 443
242817 282773 407
123147 330562 443
