16233 42997 324
13581 31930 308
41983 32117 324
35170 19566 311
2637 3465 217
37654 20319 324
10481 43393 324
13615 4446 276
33589 49415 324
34069 2468 308
35608 34235 311
34873 10514 311
5760 18516 279
20056 32112 308
32569 29075 285
8007 26831 308
14660 10521 276
3518 4410 238
25307 39982 324
39009 49120 314
42463 35003 324
29217 25606 308
36027 26138 324
2906 3650 217
3561 13559 276
30558 39935 324
25504 29449 308
45699 13658 324
25555 2787 282
30563 18825 308
13696 38927 324
15042 39931 324
26138 12276 282
18079 9683 279
3767 16177 276
714 122 171
40984 7401 324
4740 38534 324
14311 5977 276
8174 4228 262
10004 35029 311
24539 2116 282
40010 48972 314
10234 44757 324
10981 8973 268
35889 14504 324
49121 39521 314
36500 42033 306
28249 49725 324
44267 18339 324
47634 33714 324
18848 22901 274
30984 49177 324
8895 25700 282
29989 46585 324
44623 34338 324
1045 47198 324
34438 22360 311
23212 10146 279
27553 1821 308
8056 36922 324
45204 44817 314
18352 17289 279
10105 30179 308
21647 11489 279
39354 41721 306
888 15833 276
9511 21800 279
30043 21264 308
8755 40827 324
23249 4463 279
8166 13606 276
47724 5977 324
43379 6370 324
17672 4096 279
46073 14836 324
2588 5388 238
49128 44215 314
22642 43087 324
26471 27396 308
29025 12060 308
9636 11075 268
25592 7085 282
27027 6971 308
2926 3429 199
21881 25589 282
28922 18284 308
40535 16729 324
17914 1969 279
28908 8350 308
11867 17113 276
44645 6918 324
2522 46992 324
19967 7875 279
27539 49617 324
43124 25306 324
20963 9445 279
37923 20930 324
6937 12360 268
25598 15457 282
46956 31115 324
18382 13116 279
3197 33094 308
16111 48022 324
3661 6913 262
19994 41357 324
8860 42135 324
3032 15094 276
4965 16758 276
29940 17613 308
3668 15751 276
29462 11345 308
21700 17683 274
20200 40584 324
24693 9216 282
630 41991 324
7186 31890 308
22132 9100 279
47436 28302 324
5490 12508 268
23636 8169 282
46686 49288 314
8848 22275 279
32356 42086 324
2752 5996 238
14156 18792 279
46469 21965 324
35389 39039 324
9556 1063 262
42314 38568 306
2269 33082 308
1382 12261 268
43104 6832 324
29931 46109 324
41755 25505 324
2572 43046 324
35923 30617 324
32085 30146 285
49320 19599 324
29792 12167 308
17870 10659 279
26802 48848 324
12530 8378 268
44795 37164 306
20905 9086 279
2915 30351 308
27664 13716 308
1164 45061 324
27540 6655 308
40183 49393 314
14069 13677 258
107 38909 324
43333 11126 324
21615 18612 274
33332 20663 308
35742 42056 306
36339 10224 324
30591 43382 324
43499 17449 324
13333 32208 308
519 31031 308
24577 28102 308
25655 29098 308
17052 44402 324
37230 37315 187
19872 40090 324
39333 35907 306
2634 25108 282
24150 46292 324
20125 43513 324
8454 27739 308
49142 8793 324
45577 37517 314
43804 13729 324
11469 17425 276
48997 10937 324
24839 5347 282
2591 35132 311
20429 29738 308
10790 2026 262
14465 3225 276
40648 852 324
23117 6206 279
25842 30196 308
25426 5494 282
11059 5932 268
4914 7672 262
29767 37231 324
18984 39794 324
1618 2344 183
35980 49004 314
4851 28253 308
21063 37302 324
31706 44110 324
43409 49615 314
3480 19043 279
45944 45690 239
15527 31260 308
39050 4697 324
16092 4507 276
2381 1991 183
48086 14965 324
18843 8329 279
15295 4679 276
47557 26886 324
25220 35999 324
42352 38733 306
36839 42436 306
9006 45387 324
20633 5637 279
37874 31833 324
43893 44638 270
22677 11866 279
49285 45505 314
3493 4659 238
48663 11725 324
42164 6474 324
44377 15328 324
12684 12064 263
7807 26313 282
