990059 708498
850689 699638
831994 320336
405602 363197
260267 511870
468584 41953
379826 131960
168739 119702
903640 532353
438 797787
98116 669950
892048 474561
78281 861003
545563 72911
890240 190942
123570 550889
266717 638090
287288 958087
784970 923466
706261 260619
931392 811060
107219 32133
928803 470561
402352 930366
205793 910182
487711 121185
296700 903287
639495 968004
758989 826112
306050 777991
744083 507397
89946 307966
579425 301376
530015 780015
551677 527960
877990 677766
933187 817998
413503 22301
666438 959141
183789 667891
566193 405471
814885 662915
100745 564953
175048 769461
947059 502011
734672 535387
522550 692486
584538 411112
675829 517963
434416 550750
402596 651874
867001 305889
860851 332715
827843 502040
676074 975274
681685 58459
401162 798247
723054 59583
421390 729285
472187 928629
339324 807096
123086 371497
980657 917538
775139 784694
295929 280947
920996 51163
469844 939031
120084 453111
563390 513166
437914 291266
901751 339359
570676 400837
715497 724517
275051 616535
142509 850648
614774 351866
79553 607761
468168 864423
476558 759400
123337 307907
509042 716536
38724 849054
682830 703780
929044 446834
387210 391253
869096 268771
410725 121050
167946 14326
412366 462405
436889 266568
766172 551256
703720 494877
630175 63961
740155 336593
88836 719722
968746 704627
51601 876425
532764 126117
546828 667920
881104 336377
857751 600886
351065 829696
795428 509239
498111 696459
229621 973705
171150 493264
497788 682630
899043 519526
721462 953477
793905 425542
699686 72468
754957 188624
795093 15871
681070 319909
291325 494343
454375 9919
528370 103596
564857 803924
849831 625987
933145 226044
398552 124084
726935 63014
895383 257420
360131 162225
487430 525317
130955 728981
485196 593304
260822 611078
533241 613497
947674 761720
148850 425712
364744 27742
269214 435225
309243 114306
587112 91638
923680 799823
982150 37821
148453 715214
351771 714923
516141 494440
674896 702454
520361 886120
243023 913609
393302 764124
593187 249520
944299 264347
828338 413238
454896 795178
941035 985291
703707 413586
395286 599126
817959 822200
966608 396701
468270 241767
603933 20391
292483 537884
150478 42134
2536 891029
52336 668054
890718 651574
115244 987644
874866 502679
151338 123582
837748 441638
77121 185242
37460 722048
989008 672934
894026 349564
452624 266969
283343 767562
598373 308028
207942 951901
778229 824831
162505 560842
861317 343215
720645 309665
832931 227893
879385 595792
617056 394165
547530 748540
132399 706763
62124 534594
621888 160275
986716 733302
140204 743321
830807 605208
920880 101083
123429 545939
832508 664706
922283 309094
995095 601592
973371 80494
899182 19576
65921 209715
129757 988453
966314 195181
212449 400086
98545 193439
981741 816968
65878 553401
868607 621119
78855 802525
454965 969200
607084 928211
461966 891259
347464 650835
507484 950558
700001 115829
631838 26393
632866 482901
948051 995918
289702 323418
18180 48784
427438 887816
129332 974319
370146 343948
129603 301241
935550 195973
220264 772097
523926 471763
159261 349815
143909 196353
793157 572701
934729 178218
66113 932936
245569 371799
777254 573005
172885 724626
380100 187304
756043 411533
59957 888080
331710 546916
449957 360828
325800 34596
532858 529035
762531 444181
672136 600400
441223 935639
308121 349347
425178 122650
731473 653866
739086 290725
448196 711204
365507 351751
661840 740993
293287 346953
966631 918780
922614 164282
428425 992403
160089 570433
849892 822482
82048 978485
405852 109307
185650 207985
87209 552287
947225 168626
113629 293024
258871 107907
275810 326449
582704 441583
451217 492634
204259 597348
46878 193318
834759 815833
215674 884224
932499 792062
320089 257478
540392 684211
