694795 918313 525
554503 322837 470
110263 3045 354
425679 572681 470
859965 652527 525
200271 328593 443
443154 823826 509
28257 945343 525
417708 126111 449
967461 235028 525
11576 813411 509
259670 951502 525
577367 61221 470
760183 884269 525
106847 269961 443
19854 949529 525
94655 604088 470
177163 676024 509
395082 886345 525
999751 497391 525
360985 458376 449
589488 808035 509
980545 880769 507
934548 184716 525
245680 360273 441
129086 938666 525
402010 218862 443
79538 935029 525
387751 478833 449
875830 910340 476
743684 686922 504
642007 214684 509
833740 30902 509
958166 309882 525
339542 473864 449
3915 115578 354
346343 83017 443
706484 56554 509
982150 999928 440
14465 255864 443
662651 894377 525
733551 663586 504
326341 654161 509
872154 453463 525
375154 617113 470
83 222434 386
939476 287303 525
42227 283709 443
999343 162939 525
524996 874072 525
648110 994723 525
484277 210165 449
154632 63201 375
505214 245069 449
536351 376414 470
526944 163408 470
979431 441902 525
273338 94850 443
77849 492296 449
296927 750688 509
309374 458948 449
732267 489582 509
186220 916601 525
537281 178060 470
82273 39375 351
796896 107282 509
247996 675326 509
334638 673002 509
201737 902444 525
387707 995270 525
756386 616013 509
909910 346474 525
615474 633704 509
615637 269502 470
486959 467286 413
817355 970585 525
690057 687740 380
209335 272186 443
417977 388325 449
544481 46207 470
614916 517631 452
402595 559785 470
117639 705746 509
90364 231963 443
531108 803984 509
805703 299522 509
56850 844679 525
499512 248039 449
329232 281676 389
873359 484624 525
114214 178446 383
516181 938995 525
853349 189058 525
499459 371266 449
956493 447623 525
51433 508116 449
242781 29544 443
301756 518886 470
639011 26761 509
836773 390708 509
707389 944907 525
221621 840102 525
426698 186550 449
246053 853541 525
528329 448003 470
702880 6870 509
264244 436770 449
277000 888484 525
135038 52771 354
151205 491812 449
572160 208569 470
623032 393456 470
186078 447425 449
644447 68698 509
237866 74725 443
853742 876586 432
794387 620485 509
662532 963053 525
942122 346011 525
499882 703843 509
479790 906964 525
188421 793294 509
668912 62853 509
130717 342061 443
348551 905766 525
190585 144904 383
949789 119077 525
871347 914447 476
194928 416026 449
905605 801053 525
877985 303385 525
426175 415432 418
102605 324578 443
574399 136130 470
260802 591610 470
111517 497553 449
396112 977646 525
443957 237511 449
536665 355049 470
168108 228094 386
649666 900210 525
12003 818288 509
982978 229109 525
303844 224764 443
81457 229917 386
345744 591851 470
963414 472169 525
964108 199488 525
325481 277264 389
429519 182417 449
714630 905800 525
922857 69326 525
451519 854058 525
117562 428982 449
623468 158360 470
5494 115075 354
728119 309952 509
495911 5174 449
392599 106880 443
130444 137358 344
794806 169181 509
559456 270556 470
899125 783907 525
964931 936777 507
50535 685198 509
246916 804840 509
740622 201091 509
612533 645280 509
319982 196628 443
149931 449999 449
686763 859308 525
138023 465639 449
455229 678481 509
455837 447891 387
326242 553837 470
207210 672678 509
662145 715819 504
824511 945589 525
720147 475998 509
845621 673398 525
61453 10495 340
438145 960742 525
551061 695017 509
848858 230496 525
535237 737324 509
177187 362758 443
744678 335943 509
725897 699079 504
294385 666011 509
44189 348705 443
16704 783822 509
931053 696767 525
618965 686265 509
301298 189248 443
757338 834522 468
949847 196334 525
498642 593030 470
495960 92748 449
594492 466964 470
117709 846480 525
