88663 656661 509
478807 281630 449
42679 765007 509
316183 497217 449
521319 962222 525
236863 397885 441
126265 11521 354
600793 276961 470
832467 524557 509
945398 977101 458
604531 164776 470
213668 853361 525
813772 886311 525
281211 652492 509
653515 416253 509
217586 453349 449
187174 856967 525
624466 112374 470
701389 396235 509
983817 813801 525
646436 551470 509
506948 180247 449
700852 285672 509
945863 593272 525
660770 441379 509
144383 235566 443
515523 717845 509
380004 247038 441
576283 269492 470
455756 543313 470
184236 924288 525
704637 581911 509
763361 823602 468
338578 275796 389
776077 108397 509
564931 550352 421
180756 741479 509
867663 884826 432
961050 733075 525
156860 629298 509
557379 234772 470
159842 811750 509
196494 284537 443
490312 710179 509
156400 694091 509
260828 671456 509
911038 404828 525
349941 756053 509
363668 485262 449
683642 825573 504
726145 239951 509
863150 68305 525
637190 608807 509
81029 931003 525
125621 80556 354
167573 289377 443
940026 446563 525
47408 975861 525
435649 148739 449
699658 385802 509
78111 715418 509
389233 118767 443
17838 674964 509
844977 343012 525
853076 851946 326
512506 679140 509
761748 653986 504
1585 208786 383
180806 424267 449
24668 76982 340
836652 502565 509
526888 618054 452
854614 685307 525
77572 101324 341
911002 431264 525
313909 228864 443
70611 291520 443
129578 99549 354
147344 787256 509
68164 527651 470
347201 555922 470
1386 384314 443
543095 115157 470
950114 853231 507
74901 601273 470
917972 598035 525
446911 736150 509
438053 502211 444
806512 615205 509
256604 233092 381
452262 742122 509
565217 98761 470
323574 16571 443
194137 662209 509
952260 849655 507
544118 367983 470
500192 364300 449
491525 793664 509
266048 553979 470
123869 761534 509
282962 45923 443
771176 53579 509
12083 671882 509
579352 808137 509
108483 401341 443
495257 331449 449
82610 5589 351
677733 938048 525
36315 641387 509
987538 94449 525
983086 174328 525
906151 23268 525
951704 648786 525
31911 879465 525
163341 846155 525
440932 100520 449
339406 856050 525
557164 521743 452
658106 405713 509
360412 536471 470
278802 901010 525
545999 62741 470
398429 515374 470
959885 704727 525
671648 388903 509
331358 132580 443
202223 117302 383
104157 43736 351
263528 271356 407
858277 129406 525
403609 218923 443
668589 404864 509
247933 455734 449
783957 311677 509
781554 220134 509
242050 832889 509
771799 147480 509
348790 314716 441
695473 838118 525
95009 574241 470
366753 981742 525
519300 581130 452
331046 315873 384
89343 721826 509
214374 518505 470
426251 775031 509
413738 531039 470
326481 178239 443
622556 194873 470
314676 334642 384
476436 81338 449
333464 525623 470
195853 74592 383
412241 369356 449
157471 428967 449
220072 805455 509
382038 14632 443
201632 297653 443
828551 428238 509
822078 34299 509
727487 255370 509
430477 664275 509
684061 395001 509
429667 790526 509
63942 590798 470
214000 715338 509
417075 853624 525
406377 896795 525
226616 13679 386
929052 972067 507
399757 982186 525
942514 159089 525
361518 675619 509
294011 227638 443
683722 38578 509
202825 420946 449
697857 419643 509
276470 360508 441
932705 393936 525
624024 864910 525
882211 559904 525
609649 744167 509
476634 732828 509
609226 593323 403
321802 526574 470
232707 675390 509
988642 989270 321
319347 92279 443
766497 139211 509
361873 212290 443
245596 323842 407
541587 852506 525
494048 483324 426
601762 728637 509
236107 190786 443
586314 601489 403
628996 17468 509
486707 144983 449
119487 774555 509
256001 925480 525
161861 580019 470
142535 889502 525
