636935 724697
578506 425735
740363 267138
857587 577934
442207 301552
338603 475777
763335 224033
604153 733503
234550 199698
553017 368559
273639 239539
684065 478631
832566 970974
533434 216444
459102 788335
763076 256264
563063 994495
260279 59536
59249 753531
588903 689798
797174 672432
763734 935908
216743 2731
182376 54706
518537 381165
228898 245042
344910 622770
883469 380478
512719 90262
81067 868666
123404 234796
499308 43475
585009 664758
625926 521856
12489 581668
709077 526554
920563 719247
137127 142372
709525 564874
550599 383127
843932 468120
730680 817983
826910 793896
437739 842007
88213 893056
880284 495235
767244 12563
377462 924602
981687 498298
960009 305899
607528 236927
352431 377100
359234 584811
920981 467895
655661 796318
167605 339161
668935 432142
809164 745093
772602 756987
837344 178983
71678 417710
154727 101624
798244 640595
620931 257158
593299 710626
6907 19068
957082 428864
934063 576733
796988 391441
914307 7785
801580 376983
761863 734608
680925 900509
238614 591723
361721 138985
201655 214243
990059 703888
80021 743423
108136 332716
910169 401681
818439 335736
135278 516001
513467 961681
203833 109302
268018 763062
135212 182429
876250 469529
165611 907377
640537 561424
999176 20910
860646 787167
507372 494660
565091 741085
506301 894235
373256 473100
943399 185884
292820 532694
652595 25733
498721 354829
810303 63290
83969 231857
772944 692237
54995 83702
556890 401159
551407 49240
249794 974988
239802 453812
208828 784858
294584 949809
97867 861611
461890 297424
991988 454123
912048 382517
1420 455602
732216 894609
724130 301724
469341 478376
263287 252764
817527 510145
512790 678254
549362 893356
836761 72558
1913 637720
372865 892164
215582 70597
280179 156866
24267 99674
379895 184220
675145 46952
161785 861484
84332 952721
886906 266003
442336 688281
979203 45467
486653 176041
989175 554608
213818 412264
268727 472001
495249 776283
102679 837264
425171 289052
844849 293323
541937 189609
394344 780424
750006 799829
844371 612540
768420 888686
74299 819308
867419 956853
30266 554625
445677 945871
930697 819939
780404 782164
299508 491100
537940 886642
455271 854297
603647 867720
488705 5663
11235 882737
683762 927883
902169 791092
975239 777879
197523 589483
412743 119376
852339 762821
948766 69067
698112 359673
163924 893562
954626 438715
427965 631096
416640 581080
304351 156977
124950 727982
727002 479745
225159 433783
881910 950250
206996 73755
940263 627881
93887 543274
370939 47390
785877 580356
307102 2496
888659 670886
728902 866365
528111 131116
123580 110358
545456 60546
480435 790148
371997 142165
260903 952577
545499 629643
61676 360917
717430 580970
923443 236260
86809 992989
177245 681998
924410 990406
383818 570374
631129 149838
98343 966000
854615 996007
643128 966592
323797 893852
83330 987434
429779 114684
287651 202442
755834 274281
633825 716011
503590 52328
731071 711045
672396 533629
445188 932620
278202 612562
466340 631645
369671 12947
888337 421213
680760 950713
203990 334236
930619 260850
526328 50418
79610 543841
177790 403718
727709 392875
898763 600033
536660 698434
578473 448363
47935 597055
405716 83177
426572 516689
17279 129187
20400 540872
