91845 43834 351
29872 19669 308
89231 67740 351
31364 95058 351
1603 41156 324
80659 14112 351
70854 17776 340
34675 84085 351
83174 23507 351
77544 39279 351
34013 86970 351
55222 18893 340
87210 34649 351
40774 32102 324
73921 96953 351
65847 91846 351
44592 84996 351
94545 90930 333
79460 70646 351
71615 27049 340
41116 55340 340
35845 43956 306
906 76271 340
79046 11301 351
55926 92802 351
56476 77211 351
36600 79406 351
39743 92264 351
48413 68683 340
87304 39320 351
54593 12421 340
95331 75810 351
97999 85274 333
65720 83275 351
43964 44146 270
67114 53444 335
36340 33499 324
37848 93800 351
3298 53290 340
95351 80978 333
26002 53283 340
76255 78741 351
60532 32066 340
10222 30648 308
46696 90325 351
14040 57806 340
17412 37299 324
14320 31201 308
27428 63630 340
13410 38050 324
65127 90512 351
76291 11277 340
17160 19285 279
63698 87429 351
14757 21024 279
75948 98614 351
38413 91798 351
85338 25722 351
46320 18461 324
17358 71903 340
39788 35175 324
69761 93099 351
26162 89081 351
72156 79853 351
32153 72194 340
72569 81530 351
52292 42101 314
90401 69780 351
2116 44292 324
95775 88295 333
30646 47596 324
77033 94686 338
96493 45032 351
66864 41079 340
12488 47975 324
2960 34964 311
53156 24965 340
66521 21440 340
20376 759 279
85025 57870 351
83716 4136 351
79285 76768 351
25535 30019 308
12362 68768 340
22791 24549 282
71720 14895 340
11499 98366 351
99524 13925 351
41233 28764 324
98351 31806 351
49723 63482 340
80847 17051 351
91403 62049 351
31516 68103 340
35140 59279 340
62395 31637 340
24269 71931 340
21592 86926 351
80179 34905 351
36068 31332 324
85251 2151 351
92930 33492 351
44585 36465 306
87810 67682 351
19977 48106 324
32333 62806 340
77374 22959 351
52685 31668 340
98252 40469 351
34995 83749 351
55948 38301 340
2527 59576 340
63529 3050 340
94350 98911 328
43667 57950 340
92125 92857 302
66144 58290 335
45231 5322 324
66528 2705 340
16586 68316 340
11770 48601 324
77149 59296 351
53086 85682 351
49362 94665 351
58728 40923 340
86049 67266 351
51204 3219 324
99647 71102 351
26514 32070 308
73624 49339 340
60238 48374 340
99766 68808 351
7098 30202 308
8968 39210 324
53734 4810 340
4643 43701 324
20023 8712 279
4274 31508 308
89323 40540 351
48046 92189 351
80640 85617 320
55876 89350 351
59777 41123 340
74387 38699 340
6223 5048 262
84028 16100 351
96797 17846 351
31818 85814 351
44830 53887 340
50110 40494 314
6354 86175 351
1750 85229 351
97175 9969 351
25025 69420 340
25746 85670 351
95113 33197 351
44961 59161 340
21516 81117 351
28462 28125 259
4894 89460 351
10310 72470 340
12007 56952 340
77856 18418 351
33526 6320 308
50013 98212 351
87327 88477 333
48291 7776 324
79625 98800 333
19323 90822 351
31585 94604 351
94236 65425 351
22040 76217 340
26948 57872 340
51863 55648 340
83188 54043 351
39915 87723 351
76875 6065 340
68381 99023 351
5453 82696 351
8246 30050 308
63190 50154 340
91125 44846 351
98555 16399 351
55167 34742 340
27515 81161 351
97644 74340 351
18284 7139 279
18990 76156 340
16530 70967 340
94827 16616 351
24622 30075 308
85138 82031 320
46754 17736 324
82855 6271 351
48208 47027 314
54918 87375 351
102 20177 279
62372 39689 340
88347 56443 351
33445 62605 340
81023 5042 351
29241 6327 308
48491 79452 351
34539 18014 311
68468 46896 340
31073 30232 254
8466 74589 340
78681 28718 351
50437 39704 314
67842 66330 312
74483 53314 335
31031 78883 351
22731 6881 279
45073 63535 340
98927 31149 351
29626 98651 351
52142 29147 324
1310 3010 217
67117 43086 340
74182 86055 351
97640 81099 333
21846 27604 308
74312 88187 351
7745 73723 340
81752 55909 351
48239 47174 314
21464 7976 279
78163 96438 338
38917 55856 340
82650 77929 338
29934 3099 308
2030 13621 276
10308 23877 282
7831 29244 308
86117 97900 333
732 1565 182
28906 54055 340
66460 13917 340
57228 21678 340
16130 79762 351
16545 39650 324
28879 80979 351
46721 67146 340
63718 38695 340
38112 25529 324
63757 91516 351
22704 1252 279
22038 37279 324
10531 25665 282
20572 34580 311
