827428 952437 525
346592 493480 449
75929 824067 509
407826 819834 509
892659 62676 525
810657 99717 509
335878 369224 441
82935 279211 443
876418 310511 525
577465 586648 434
88483 737144 509
707829 239921 509
258759 282182 407
832744 609760 509
215974 651966 509
168196 859536 525
823124 236993 509
970075 584880 525
424324 768310 509
56072 174376 383
485295 131032 449
160054 202985 370
887697 612789 525
452639 352695 449
323678 680457 509
236267 497879 449
31120 439239 449
708853 890303 525
39951 523506 470
75266 517489 470
781384 622063 509
349009 385567 423
517673 844635 525
114623 951155 525
157672 103625 383
309634 683209 509
486058 326082 449
233133 830294 509
93988 907188 525
884644 929783 476
567025 9925 470
81855 481456 449
81854 767145 509
417554 344941 449
83215 887497 525
696068 814903 504
933718 106212 525
256762 853983 525
147396 984099 525
58912 793347 509
779923 321727 509
715281 419070 509
972194 647391 525
320154 161796 443
168076 222643 386
246723 661846 509
419943 105218 449
163716 872785 525
127395 672981 509
788801 366910 509
195174 629019 509
219334 703356 509
514064 889082 525
583174 580704 328
860823 999578 507
162527 880935 525
203956 869525 525
602144 82117 470
72099 643182 509
244092 880254 525
869060 108607 525
37662 841837 525
988556 227321 525
643136 850204 525
637672 850457 525
946064 146571 525
202881 429113 449
309719 620730 470
972982 555954 525
4358 589944 470
131508 96946 354
952934 71081 525
896759 514342 525
841521 44027 525
476493 102592 449
540567 148053 470
856672 22138 525
877191 948439 507
474340 203762 449
941007 737431 525
214249 273647 443
46123 35316 324
417298 494351 444
287197 117858 443
736104 177239 509
242219 935683 525
564 997812 525
964340 347444 525
599277 751730 509
426399 170793 449
270760 903973 525
316598 613118 470
13437 846389 525
898118 646971 525
987184 874792 507
831907 753962 468
821227 157713 509
543938 551912 452
346902 919581 525
337084 413495 449
988582 741105 525
853406 419169 525
153148 978871 525
57313 740212 509
105358 902715 525
304675 5753 443
823513 802038 450
834736 841854 525
659844 273726 509
402247 912542 525
282010 797212 509
814873 613086 509
221208 220349 324
387312 159850 443
397024 261577 441
336390 357823 441
411318 410185 374
143215 739766 509
745645 248182 509
195247 597948 470
791878 882896 525
836059 361985 509
634542 414374 509
114562 566673 470
604740 956533 525
136476 884397 525
26986 104247 351
553753 512373 452
64267 293973 443
16032 766650 509
365214 21347 443
567527 223148 470
783629 936957 525
594955 157114 470
492781 929789 525
845901 976634 507
861501 807856 525
257993 876559 525
464440 295797 449
368610 280496 441
824928 532288 509
11651 526534 470
629834 849751 525
557867 988856 525
191600 15258 383
75882 743193 509
251088 24525 443
743201 434245 509
701458 988792 525
93951 711336 509
737442 411703 509
473386 997070 525
385666 189690 443
897990 391177 525
149929 818844 509
998220 280827 525
995172 411920 525
714158 616921 509
452065 463477 444
422604 947168 525
875855 932681 476
957065 154115 525
989029 452077 525
578861 327284 470
91694 26586 351
340279 854930 525
771050 810167 468
327148 704775 509
292475 141200 443
487073 543662 470
449329 475778 444
583810 741656 509
349036 883509 525
414791 808422 509
345259 922335 525
815477 536777 509
382640 965748 525
357674 499728 449
199797 217746 386
717682 378107 509
226945 91796 386
819079 476888 509
205753 257621 443
22344 84189 351
489447 244952 449
891797 584634 525
280547 859364 525
621705 617037 372
456046 821262 509
371141 750084 509
755809 106269 509
352844 940365 525
285860 85593 443
773620 988717 525
489993 268016 449
931256 459228 525
968713 333667 525
39190 218475 386
7525 400108 443
793975 445165 509
697150 931578 525
57446 155681 375
33492 674496 509
584136 251310 470
100382 104769 310
366510 147526 443
5843 939510 525
292149 96734 443
731081 430628 509
328242 54026 443
974392 494307 525
556852 510307 470
587224 687273 509
510772 839858 525
