302634 669475 509
267480 632849 509
988828 771253 525
302679 790177 509
116206 994228 525
742289 676436 504
300482 568695 470
602562 584767 403
399528 872033 525
33841 872977 525
897249 398960 525
834855 651425 504
158832 875361 525
71506 683323 509
604401 547901 434
431943 648552 509
239756 632952 509
897709 483694 525
404983 396975 387
656044 107882 509
569137 999337 525
238934 277503 407
513376 790206 509
194951 600460 470
883660 172154 525
376486 956851 525
44625 47092 314
213838 111568 383
164463 532073 470
906666 608387 525
332773 647166 509
311426 671443 509
243206 255467 363
540370 755063 509
404725 43806 443
494285 751197 509
899043 433794 525
705227 117082 509
329518 929707 525
970228 924287 507
487937 235498 449
866757 944650 507
530051 432104 470
552864 628266 509
970360 338815 525
862922 245734 525
327781 56782 443
461211 263026 449
90568 758173 509
87020 1522 351
363047 313951 441
395497 124104 443
69347 459540 449
242583 141890 443
609529 158771 470
822745 493617 509
261711 231919 381
961136 141854 525
75966 367845 443
822188 917722 525
131382 770352 509
150661 633766 509
27693 428184 449
47286 542076 470
528345 151914 470
140941 693144 509
493490 228005 449
504530 119065 449
537787 322406 470
23462 534280 470
992545 520070 525
152057 464998 449
864136 329048 525
30262 354716 443
786017 552222 509
42384 228098 386
243265 970004 525
438918 296404 449
766806 191391 509
651648 449595 509
913507 714708 525
30290 920511 525
793542 417564 509
392243 135679 443
744197 171589 509
556487 344365 470
454566 338975 449
412961 244292 449
366345 869559 525
67946 424374 449
550484 879192 525
476850 351526 449
558637 717132 509
297793 944904 525
691010 483589 509
777535 548677 509
774254 243974 509
913943 138383 525
419524 7177 449
283220 797282 509
186444 869535 525
777926 567589 509
102159 71781 351
760850 826308 468
24126 263534 443
220329 506775 449
594505 869463 525
326497 82192 443
519376 304308 470
869154 39161 525
667920 328109 509
607898 654804 509
231814 771764 509
379628 640250 509
258644 530394 470
401892 937782 525
562994 450032 470
359611 961079 525
74156 208686 383
51595 71502 340
216818 280257 443
964481 358730 525
896070 659614 525
550769 120622 470
703906 412656 509
780026 454407 509
246788 177428 443
791624 142567 509
144824 411679 449
583500 851635 525
182245 562731 470
554448 415088 470
161561 75273 383
904262 775593 525
213058 166550 373
119754 840320 525
926675 158559 525
747309 550529 509
781882 430913 509
876009 635020 525
381073 78543 443
227008 777203 509
287797 598777 470
636100 669129 442
23746 686225 509
846835 648052 525
17429 641435 509
404366 545059 470
805232 855755 525
664320 606359 509
611356 575577 434
254542 711221 509
750408 686587 504
966100 890323 507
888759 991688 507
432258 187299 449
788033 681162 504
363204 584014 470
946029 80536 525
699180 545526 509
27519 854457 525
942972 919737 507
824084 571989 509
276220 50107 443
947696 642148 525
518382 634076 509
967007 868339 507
770202 846981 525
516588 552935 452
78791 106079 341
47055 702198 509
990662 816971 525
536570 212121 470
156176 306492 443
46232 106356 354
777134 46600 509
460061 449189 387
557184 5574 470
58229 510126 449
805216 102626 509
60674 979939 525
274261 639677 509
495330 467060 426
756662 735750 424
142434 872047 525
661136 260063 509
551614 338014 470
269802 25533 443
107375 394969 443
195497 465930 449
34748 864286 525
899586 337033 525
867675 254419 525
203448 351641 443
869074 417860 525
689798 520117 509
212494 787745 509
387881 859990 525
874730 341770 525
563037 894922 525
541845 11887 470
839383 16665 525
779542 320150 509
232679 571937 470
607872 988641 525
953652 767623 525
848904 595468 525
757307 423680 509
40788 176791 383
243429 434279 449
287500 946703 525
934041 746233 525
634932 211630 509
136988 266527 443
364718 279841 441
537296 960408 525
294079 550029 470
78257 39423 351
985526 121128 525
479582 217265 449
424540 178377 449
578965 245856 470
722057 510108 509
128605 381978 443
821715 862912 525
475975 85313 449
785486 741327 468
694519 122889 509
878849 474405 525
122941 503433 449
405686 440124 449
63097 196390 383
959498 736773 525
503670 188850 449
832121 719090 468
149991 117270 375
173434 799104 509
795784 804205 468
207770 714544 509
911361 188961 525
540310 100150 470
896749 666888 525
239963 618388 470
671628 836160 504
308647 87872 443
85644 278177 443
877899 383960 525
935972 732457 525
497913 724304 509
549355 897276 525
