204698 439726
482032 35851
132793 821094
875979 195543
213360 876739
950618 845897
757400 273696
236391 561696
622386 830026
665556 967856
495420 395640
189035 314475
154142 51572
323237 736943
582411 170966
261666 558662
67229 659157
852209 563983
801101 127927
462949 900705
759865 903632
823966 463273
812058 77463
981990 550060
669070 952475
171750 873997
774955 769981
778498 264158
464965 524601
901960 672477
260370 989807
7681 491734
565069 25891
633521 28087
631821 649619
156538 168584
111223 167058
209910 844385
829070 415641
190935 468297
620385 458842
209612 792612
389818 568890
784364 308692
431854 822421
581622 806031
967620 244958
125397 299983
958117 634185
612487 407543
490420 709444
175685 766280
401354 40963
491812 137059
700588 944341
430621 754757
302668 482888
541851 595321
204666 129786
112877 46788
114101 319134
52880 59735
549688 239391
688934 557516
935807 294018
225782 436623
874612 825830
642940 362497
605409 704543
13431 615035
218102 901008
576519 942588
965286 992361
564935 711005
357650 713678
602592 688813
803705 571725
910890 482998
457922 509651
191109 919081
10507 586801
751614 526457
19444 666831
164537 501607
909228 299440
521087 402202
10063 487794
124590 458752
104338 457337
542195 235531
89190 528492
144192 188174
672270 801337
788112 380728
910670 624265
703336 582154
10789 534997
407857 460052
185582 832476
834991 649879
27950 822676
909682 428438
64471 7509
813847 424749
758498 83467
480446 868354
789371 461670
642540 131312
921673 850423
608029 312051
313411 141876
561330 472134
978884 843656
521125 483887
540009 972003
643302 777167
488248 783597
252202 258496
97501 119370
459884 362604
538814 241372
450683 109818
136342 913455
225036 51675
539058 481673
640034 490979
997192 278092
622716 666966
794763 805746
627063 970906
575487 340941
148324 626365
601739 89724
771080 650448
668578 211732
678185 499386
961903 332891
759513 362085
575711 675668
501524 713435
901457 799717
971897 946702
744004 733032
392972 318294
97642 729145
156216 147643
352056 491187
410815 279431
901004 264043
967578 834946
469381 218054
801347 8162
414346 29451
579216 242725
744014 37224
62812 341437
413267 898100
143414 429521
298915 359284
743856 518271
40687 932545
805733 491463
221815 355363
984329 674500
643845 67914
127604 983481
911833 776961
751002 495047
522362 412511
156888 985487
381938 287554
553498 339581
709363 443288
141180 977012
966179 531243
423336 882005
979060 85400
536691 195505
219952 830266
87166 280597
820168 153635
846731 317520
941722 963973
715398 225150
311914 933564
410485 650187
99458 50811
85813 297002
498593 104894
278868 615761
541592 107183
415305 512103
987481 553012
486981 417192
894059 279132
769177 710056
460193 192619
296507 774784
711449 144354
507294 50328
